<?xml version="1.0" encoding="utf-8"?>
<!-- Generator: Adobe Illustrator 23.1.0, SVG Export Plug-In . SVG Version: 6.00 Build 0)  -->
<svg version="1.1" id="Layer_1" xmlns="http://www.w3.org/2000/svg" xmlns:xlink="http://www.w3.org/1999/xlink" x="0px" y="0px"
	 viewBox="0 0 512 512" style="enable-background:new 0 0 512 512;" xml:space="preserve">
<style type="text/css">
	.st0{fill:none;stroke:#000000;stroke-width:15;stroke-miterlimit:10;}
	.st1{fill:#DA4A54;}
	.st2{fill:#C32430;}
	.st3{fill:#A71F29;}
	.st4{fill:#DAEAEF;}
	.st5{fill:#232E38;}
	.st6{fill:#ABCFD3;}
	.st7{fill:none;}
	.st8{fill:#0E1011;}
	.st9{fill:#5A6672;}
	.st10{fill:none;stroke:#000000;stroke-width:15;stroke-linecap:round;stroke-miterlimit:10;}
	.st11{fill:#82DD47;}
</style>
<path class="st0" d="M107.67,32.5v-5.18c0,0,3.27-18.55,18.55-18.55s107.2,0,107.2,0s18.82,7.09,23.46,23.46
	c0,0,3.27-18.28,22.5-22.5h113.34c0,0,7.77,1.64,11.66,11.66v11.93"/>
<g>
	<path class="st1" d="M79.04,502.5c-20.61,0-37.38-16.77-37.38-37.38V76.15c0-20.61,16.77-37.38,37.38-37.38h57.54
		c20.61,0,37.38,16.77,37.38,37.38v388.97c0,20.61-16.77,37.38-37.38,37.38H79.04z"/>
	<path d="M136.58,46.27c16.5,0,29.88,13.38,29.88,29.88v388.97c0,16.5-13.38,29.88-29.88,29.88H79.04
		c-16.5,0-29.88-13.38-29.88-29.88V76.15c0-16.5,13.38-29.88,29.88-29.88H136.58 M136.58,31.27H79.04
		c-24.75,0-44.88,20.13-44.88,44.88v388.97c0,24.75,20.13,44.88,44.88,44.88h57.54c24.75,0,44.88-20.13,44.88-44.88V76.15
		C181.46,51.41,161.32,31.27,136.58,31.27L136.58,31.27z"/>
</g>
<g>
	<path class="st1" d="M374.26,502.5c-19.9,0-36.08-16.19-36.08-36.08V74.85c0-19.9,16.19-36.08,36.08-36.08h59.59
		c19.9,0,36.08,16.19,36.08,36.08v391.56c0,19.9-16.19,36.08-36.08,36.08H374.26z"/>
	<path d="M433.84,46.27c15.79,0,28.58,12.8,28.58,28.58v391.56c0,15.79-12.8,28.58-28.58,28.58h-59.59
		c-15.79,0-28.58-12.8-28.58-28.58V74.85c0-15.79,12.8-28.58,28.58-28.58H433.84 M433.84,31.27h-59.59
		c-24.03,0-43.58,19.55-43.58,43.58v391.56c0,24.03,19.55,43.58,43.58,43.58h59.59c24.03,0,43.58-19.55,43.58-43.58V74.85
		C477.43,50.82,457.87,31.27,433.84,31.27L433.84,31.27z"/>
</g>
<path class="st2" d="M418.71,46.32c0,0,8.73,4.09,12.55,20.46v406.17c0,0,3.27,9.82-12.55,21.82h19.64c0,0,19.37-4.64,23.46-23.46
	V73.05c0,0-5.46-26.6-26.6-26.6L418.71,46.32z"/>
<path class="st2" d="M124.1,46.32c0,0,8.73,4.09,12.55,20.46v406.17c0,0,3.27,9.82-12.55,21.82h19.64c0,0,19.37-4.64,23.46-23.46
	V73.05c0,0-5.46-26.6-26.6-26.6L124.1,46.32z"/>
<g>
	<path class="st2" d="M209.41,502.5c-19.55,0-35.45-15.91-35.45-35.46V74.23c0-19.55,15.9-35.46,35.45-35.46h93.58
		c19.55,0,35.46,15.91,35.46,35.46v392.82c0,19.55-15.91,35.46-35.46,35.46H209.41z"/>
	<path d="M302.99,46.27c15.44,0,27.95,12.52,27.95,27.95v392.82c0,15.44-12.52,27.95-27.95,27.95h-93.58
		c-15.44,0-27.95-12.52-27.95-27.95V74.23c0-15.44,12.52-27.95,27.95-27.95H302.99 M302.99,31.27h-93.58
		c-23.69,0-42.95,19.27-42.95,42.95v392.82c0,23.69,19.27,42.95,42.95,42.95h93.58c23.69,0,42.95-19.27,42.95-42.95V74.23
		C345.94,50.54,326.67,31.27,302.99,31.27L302.99,31.27z"/>
</g>
<path class="st3" d="M288.32,46.32c0,0,8.73,4.09,12.55,20.46v406.17c0,0,3.27,9.82-12.55,21.82h19.64c0,0,19.37-4.64,23.46-23.46
	V73.05c0,0-5.46-26.6-26.6-26.6L288.32,46.32z"/>
<g>
	<path class="st4" d="M31.17,149.66c-10.84,0-19.65-8.82-19.65-19.65v-7.33c0-10.84,8.82-19.65,19.65-19.65h449.52
		c10.84,0,19.65,8.82,19.65,19.65V130c0,10.84-8.82,19.65-19.65,19.65H31.17z"/>
	<path d="M480.69,110.51c6.71,0,12.15,5.44,12.15,12.15V130c0,6.71-5.44,12.15-12.15,12.15H31.17c-6.71,0-12.15-5.44-12.15-12.15
		v-7.33c0-6.71,5.44-12.15,12.15-12.15H480.69 M480.69,95.51H31.17c-14.97,0-27.15,12.18-27.15,27.15V130
		c0,14.97,12.18,27.15,27.15,27.15h449.52c14.97,0,27.15-12.18,27.15-27.15v-7.33C507.84,107.69,495.66,95.51,480.69,95.51
		L480.69,95.51z"/>
</g>
<g>
	<path class="st4" d="M480.5,430.16l-449.1,0.12c-6.83,0-12.36-5.53-12.37-12.36l0-7.46c0-6.83,5.53-12.36,12.36-12.37l449.1-0.12
		c6.83,0,12.36,5.53,12.37,12.36l0,7.46C492.86,424.62,487.33,430.16,480.5,430.16z"/>
</g>
<path class="st5" d="M408,466.9H103.04c-11.75,0-21.28-9.53-21.28-21.28V279.16c0-11.75,9.53-21.28,21.28-21.28H408
	c11.75,0,21.28,9.53,21.28,21.28v166.46C429.28,457.38,419.75,466.9,408,466.9z"/>
<rect x="105.05" y="281.81" class="st6" width="302.2" height="163.06"/>
<path class="st5" d="M235.92,434.17H125.91c-5.61,0-10.16-4.55-10.16-10.16v-6.13c0-5.61,4.55-10.16,10.16-10.16h110.01
	c5.61,0,10.16,4.55,10.16,10.16v6.13C246.08,429.62,241.53,434.17,235.92,434.17z"/>
<circle class="st5" cx="314.07" cy="420.94" r="12.59">
	<animate
        attributeType="XML"
        attributeName="fill"
        values="#232E38;red;#232E38;#232E38"
        dur="0.8s"
        repeatCount="indefinite"/>
</circle>
<circle class="st5" cx="349.33" cy="420.94" r="12.59">
	<animate
        attributeType="XML"
        attributeName="fill"
        values="#232E38;yellow;#232E38;#232E38"
		begin="0.1s"
        dur="0.8s"
        repeatCount="indefinite"/>
</circle>
<circle class="st5" cx="384.58" cy="420.94" r="12.59">
	<animate
        attributeType="XML"
        attributeName="fill"
        values="#232E38;green;#232E38;#232E38"
		begin="0.2s"
        dur="0.8s"
        repeatCount="indefinite"/>
</circle>
<path class="st8" d="M408.36,398.28H102.68c-11.55,0-20.92-9.37-20.92-20.92V278.8c0-11.55,9.37-20.92,20.92-20.92h305.69
	c11.55,0,20.92,9.37,20.92,20.92v98.56C429.28,388.91,419.92,398.28,408.36,398.28z"/>
<path d="M510.28,276.85c0.01,22.75-18.43,41.2-41.18,41.2l-39.83,0.01l0-13.09l39.83-0.01c14.61,0,26.46-11.85,26.45-26.47
	s-11.85-26.46-26.47-26.45l0-16.37C491.83,235.66,510.28,254.1,510.28,276.85z"/>
<rect x="105.02" y="281.81" class="st9" width="302.45" height="91.92"/>
<path class="st10" d="M448.12,391.16l37.37-0.01c0,0,11.46,4.36,13.64,13.64l0.01,19.09c0,0-1.91,7.37-13.09,13.1l-37.92,0.01"/>
<circle class="st11" cx="268.11" cy="305.1" r="11.96">
	<animate
        attributeType="XML"
        attributeName="fill"
        values="#82DD47;#5A6672;#82DD47;#82DD47"
        dur="1s"
        repeatCount="indefinite"/>
</circle>
<circle class="st11" cx="268.11" cy="351.69" r="11.96">
	<animate
        attributeType="XML"
        attributeName="fill"
        values="#82DD47;#5A6672;#82DD47;#82DD47"
        dur="1s"
        repeatCount="indefinite"/>
</circle>

	

<path class="st11" d="M386.29,294.4h-38.05c-5.66,0-10.25,4.59-10.25,10.25v47.5c0,5.66,4.59,10.25,10.25,10.25h38.05
	c5.66,0,10.25-4.59,10.25-10.25v-47.5C396.54,298.99,391.96,294.4,386.29,294.4z M371.99,340.36h-11.96v-23.92h11.96V340.36z"/>
<path class="st11" d="M232.68,294.4h-38.05c-5.66,0-10.25,4.59-10.25,10.25v47.5c0,5.66,4.59,10.25,10.25,10.25h38.05
	c5.66,0,10.25-4.59,10.25-10.25v-47.5C242.93,298.99,238.34,294.4,232.68,294.4z M218.37,340.36h-11.96v-23.92h11.96V340.36z"/>
<path class="st11" d="M165.94,294.4h-38.05c-5.66,0-10.25,4.59-10.25,10.25v47.5c0,5.66,4.59,10.25,10.25,10.25h38.05
	c5.66,0,10.25-4.59,10.25-10.25v-47.5C176.19,298.99,171.6,294.4,165.94,294.4z M151.64,340.36h-11.96v-23.92h11.96V340.36z"/>
<path class="st11" d="M302.11,354.85v-52.91c0-5.21,4.22-9.43,9.43-9.43h5.69c5.21,0,9.43,4.22,9.43,9.43v52.91
	c0,5.21-4.22,9.43-9.43,9.43h-5.69C306.33,364.28,302.11,360.06,302.11,354.85z"/>
<path d="M0.74,276.91c0,22.75,18.44,41.19,41.19,41.19h39.83v-13.09H41.93c-14.61,0-26.46-11.85-26.46-26.46
	c0-14.61,11.85-26.46,26.46-26.46v-16.37C19.18,235.72,0.74,254.16,0.74,276.91z"/>
<path class="st10" d="M63.48,391.21H26.11c0,0-11.46,4.36-13.64,13.64v19.09c0,0,1.91,7.37,13.09,13.09h37.92"/>
</svg>
